{
 "swagger": "2.0",
 "info": {
  "version": "1.0.0",
  "title": "Chat API"
 },
 "host": "localhost:3000",
 "basePath": "/",
 "schemes": [
  "http"
 ],
 "securityDefinitions": {
  "Bearer": {
   "name": "Authorization",
   "type": "apiKey",
   "in": "header"
  }
 },
 "paths": {
  "/chat": {
   "get": {
    "security": [
     {
      "Bearer": []
     }
    ],
    "tags": [
     "chat"
    ],
    "summary": "Gets chat list",
    "description": "Gets chat list",
    "responses": {
     "200": {
      "description": "OK",
      "schema": {
       "type": "array",
       "items": {
        "$ref": "#/definitions/Chat"
       }
      }
     }
    }
   },
   "post": {
    "security": [
     {
      "Bearer": []
     }
    ],
    "tags": [
     "chat"
    ],
    "summary": "Adds new chat item",
    "description": "Adds new chat item",
    "parameters": [
     {
      "name": "chat",
      "in": "body",
      "schema": {
       "$ref": "#/definitions/ChatNoId"
      }
     }
    ],
    "responses": {
     "200": {
      "description": "Null response"
     }
    }
   }
  },
  "/chat/id/{id}": {
   "get": {
    "security": [
     {
      "Bearer": []
     }
    ],
    "tags": [
     "chat"
    ],
    "parameters": [
     {
      "name": "id",
      "in": "path",
      "required": true,
      "description": "Chat id",
      "type": "integer"
     }
    ],
    "responses": {
     "200": {
      "description": "OK",
      "schema": {
       "$ref": "#/definitions/Chat"
      }
     }
    }
   },
   "put": {
    "security": [
     {
      "Bearer": []
     }
    ],
    "tags": [
     "chat"
    ],
    "parameters": [
     {
      "name": "id",
      "in": "path",
      "required": true,
      "description": "Chat id",
      "type": "integer"
     },
     {
      "name": "chat",
      "in": "body",
      "schema": {
       "$ref": "#/definitions/ChatNoId"
      }
     }
    ],
    "responses": {
     "200": {
      "description": "Null response"
     }
    }
   },
   "delete": {
    "security": [
     {
      "Bearer": []
     }
    ],
    "tags": [
     "chat"
    ],
    "parameters": [
     {
      "name": "id",
      "in": "path",
      "required": true,
      "description": "Chat id",
      "type": "integer"
     }
    ],
    "responses": {
     "200": {
      "description": "Null response"
     }
    }
   }
  },
  "/chat/id/{id}/join": {
   "post": {
    "security": [
     {
      "Bearer": []
     }
    ],
    "tags": [
     "chat"
    ],
    "parameters": [
     {
      "name": "id",
      "in": "path",
      "required": true,
      "description": "Chat id",
      "type": "integer"
     }
    ],
    "responses": {
     "200": {
      "description": "Join to chat"
     }
    }
   }
  },
  "/chat/id/{id}/leave": {
   "delete": {
    "security": [
     {
      "Bearer": []
     }
    ],
    "tags": [
     "chat"
    ],
    "parameters": [
     {
      "name": "id",
      "in": "path",
      "required": true,
      "description": "Chat id",
      "type": "integer"
     }
    ],
    "responses": {
     "200": {
      "description": "Leave chat"
     }
    }
   }
  },
  "/chat/id/{id}/users": {
   "get": {
    "security": [
     {
      "Bearer": []
     }
    ],
    "tags": [
     "chat"
    ],
    "parameters": [
     {
      "name": "id",
      "in": "path",
      "required": true,
      "description": "Chat id",
      "type": "integer"
     }
    ],
    "responses": {
     "200": {
      "description": "List of joined users",
      "schema": {
       "type": "array",
       "items": {
        "$ref": "#/definitions/UserNoPassword"
       }
      }
     }
    }
   }
  },
  "/user": {
   "get": {
    "security": [
     {
      "Bearer": []
     }
    ],
    "tags": [
     "user"
    ],
    "summary": "Gets user list",
    "description": "Gets user list",
    "responses": {
     "200": {
      "description": "OK",
      "schema": {
       "type": "array",
       "items": {
        "$ref": "#/definitions/UserNoPassword"
       }
      }
     }
    }
   }
  },
  "/user/chats": {
   "get": {
    "security": [
     {
      "Bearer": []
     }
    ],
    "tags": [
     "user"
    ],
    "responses": {
     "200": {
      "description": "OK",
      "schema": {
       "type": "array",
       "items": {
        "$ref": "#/definitions/Chat"
       }
      }
     }
    }
   }
  },
  "/user/id/{id}": {
   "get": {
    "security": [
     {
      "Bearer": []
     }
    ],
    "tags": [
     "user"
    ],
    "parameters": [
     {
      "name": "id",
      "in": "path",
      "required": true,
      "description": "User id",
      "type": "integer"
     }
    ],
    "responses": {
     "200": {
      "description": "OK",
      "schema": {
       "$ref": "#/definitions/UserNoPassword"
      }
     }
    }
   },
   "put": {
    "security": [
     {
      "Bearer": []
     }
    ],
    "tags": [
     "user"
    ],
    "parameters": [
     {
      "name": "id",
      "in": "path",
      "required": true,
      "description": "User id",
      "type": "integer"
     },
     {
      "in": "body",
      "name": "user",
      "schema": {
       "$ref": "#/definitions/UserNoId"
      }
     }
    ],
    "responses": {
     "200": {
      "description": "Null response"
     }
    }
   },
   "delete": {
    "security": [
     {
      "Bearer": []
     }
    ],
    "tags": [
     "user"
    ],
    "parameters": [
     {
      "name": "id",
      "in": "path",
      "required": true,
      "description": "User id",
      "type": "integer"
     }
    ],
    "responses": {
     "200": {
      "description": "Null response"
     }
    }
   }
  },
  "/message": {
   "get": {
    "security": [
     {
      "Bearer": []
     }
    ],
    "tags": [
     "message"
    ],
    "summary": "Gets message list",
    "description": "Gets message list",
    "responses": {
     "200": {
      "description": "OK",
      "schema": {
       "type": "array",
       "items": {
        "$ref": "#/definitions/Message"
       }
      }
     }
    }
   },
   "post": {
    "security": [
     {
      "Bearer": []
     }
    ],
    "tags": [
     "message"
    ],
    "summary": "Adds new message",
    "description": "Adds new message",
    "parameters": [
     {
      "name": "message",
      "in": "body",
      "schema": {
       "$ref": "#/definitions/MessageNoId"
      }
     }
    ],
    "responses": {
     "200": {
      "description": "Null response"
     }
    }
   }
  },
  "/message/id/{id}": {
   "get": {
    "security": [
     {
      "Bearer": []
     }
    ],
    "tags": [
     "message"
    ],
    "parameters": [
     {
      "name": "id",
      "in": "path",
      "required": true,
      "description": "Message id",
      "type": "integer"
     }
    ],
    "responses": {
     "200": {
      "description": "OK",
      "schema": {
       "$ref": "#/definitions/Message"
      }
     }
    }
   },
   "put": {
    "security": [
     {
      "Bearer": []
     }
    ],
    "tags": [
     "message"
    ],
    "parameters": [
     {
      "name": "id",
      "in": "path",
      "required": true,
      "description": "Message id",
      "type": "integer"
     },
     {
      "name": "message",
      "in": "body",
      "schema": {
       "$ref": "#/definitions/MessageNoId"
      }
     }
    ],
    "responses": {
     "200": {
      "description": "Null response"
     }
    }
   },
   "delete": {
    "security": [
     {
      "Bearer": []
     }
    ],
    "tags": [
     "message"
    ],
    "parameters": [
     {
      "name": "id",
      "in": "path",
      "required": true,
      "description": "Message id",
      "type": "integer"
     }
    ],
    "responses": {
     "200": {
      "description": "Null response"
     }
    }
   }
  },
  "/auth/login": {
   "post": {
    "tags": [
     "auth"
    ],
    "parameters": [
     {
      "in": "body",
      "name": "User",
      "schema": {
       "$ref": "#/definitions/UserNoId"
      }
     }
    ],
    "responses": {
     "200": {
      "description": "JW token"
     }
    }
   }
  },
  "/auth/register": {
   "post": {
    "tags": [
     "auth"
    ],
    "parameters": [
     {
      "in": "body",
      "name": "User",
      "schema": {
       "$ref": "#/definitions/UserNoId"
      }
     }
    ],
    "responses": {
     "200": {
      "description": "Null response"
     }
    }
   }
  }
 },
 "definitions": {
  "Chat": {
   "type": "object",
   "properties": {
    "id": {
     "type": "integer"
    },
    "title": {
     "type": "string"
    }
   }
  },
  "ChatNoId": {
   "type": "object",
   "properties": {
    "title": {
     "type": "string"
    }
   }
  },
  "UserNoId": {
   "type": "object",
   "properties": {
    "username": {
     "type": "string"
    },
    "password": {
     "type": "string"
    }
   }
  },
  "UserNoPassword": {
   "type": "object",
   "properties": {
    "id": {
     "type": "integer"
    },
    "username": {
     "type": "string"
    }
   }
  },
  "Message": {
   "type": "object",
   "properties": {
    "id": {
     "type": "integer"
    },
    "message": {
     "type": "string"
    },
    "author_id": {
     "type": "integer"
    },
    "chat_id": {
     "type": "integer"
    }
   }
  },
  "MessageNoId": {
   "type": "object",
   "properties": {
    "message": {
     "type": "string"
    },
    "author_id": {
     "type": "integer"
    },
    "chat_id": {
     "type": "integer"
    }
   }
  }
 },
 "tags": [
  {
   "name": "user",
   "description": "User endpoints"
  },
  {
   "name": "chat",
   "description": "Chat endpoints"
  },
  {
   "name": "message",
   "description": "Message endpoints"
  },
  {
   "name": "auth",
   "description": "Authentication endpoints"
  }
 ]
}